139076 154313 375
872048 405446 525
615900 816658 509
362081 23240 443
40312 792546 509
744504 240698 509
69470 395007 443
646927 307197 509
202925 194409 360
829922 653780 504
4773 168697 383
402890 580212 470
591762 152264 470
949654 663233 525
570025 155769 470
543434 425334 470
665746 756617 504
35560 925344 525
439848 548896 470
776613 806965 468
490450 23764 449
981242 930034 507
82036 186712 383
633404 442624 509
311163 301280 371
841909 674058 525
921839 983279 507
848955 691173 525
291669 409354 441
672712 157972 509
958020 806995 525
653030 663652 429
742822 18304 509
148313 812140 509
966303 586726 525
993686 620687 525
6726 842304 525
716319 250063 509
139359 955889 525
836527 32233 509
577289 195657 470
834635 136773 509
930532 922398 476
733418 225421 509
792243 435188 509
914792 737178 525
555138 757668 509
261242 578896 470
127184 888915 525
824578 347271 509
550287 158621 470
365910 574868 470
843262 914729 476
223709 94020 386
460662 443324 387
425566 888075 525
949179 249851 525
597634 578012 434
749479 43465 509
431513 190432 449
636851 15040 509
862413 95070 525
218248 798217 509
88929 478263 449
130065 760640 509
855566 238649 525
515490 488415 470
927766 512154 525
456880 31887 449
923339 637399 525
886503 923362 476
516040 257699 470
613078 141269 470
811564 245449 509
696877 27966 509
875262 855096 432
878544 454960 525
15901 712210 509
905622 857112 445
702410 814428 504
564789 248887 470
760457 521835 509
589211 438360 470
306588 874090 525
928837 573328 525
641872 596882 509
702049 713040 504
115251 850053 525
41915 995040 525
791925 853099 525
497896 758622 509
873596 678406 525
829491 654391 504
180401 978080 525
986248 406343 525
676613 451686 509
860215 61894 525
294938 748635 509
203044 500066 449
902227 225343 525
607103 187825 470
200584 114594 383
952731 673521 525
326181 362963 441
848221 197202 525
