50776 988215 525
111240 134195 349
161680 302751 443
27142 666266 509
81166 584451 470
1006 609296 470
323506 540264 470
735686 877669 525
205522 950637 525
91654 284453 443
70306 938347 525
197337 985612 525
73840 669717 509
8094 632436 509
169362 607019 470
600260 864726 525
3237 150485 375
2961 46823 324
620291 704178 509
280126 879007 525
25825 487948 449
62807 927050 525
252290 850252 525
46507 646877 509
30367 470093 449
708951 894164 525
304700 674185 509
242082 911496 525
87419 788591 509
26923 243844 443
418434 993570 525
594826 993274 525
558492 902230 525
239908 828843 509
90 992267 525
18169 602909 470
389202 825705 509
216270 857106 525
326559 845764 525
400007 951592 525
549242 927659 525
14870 749160 509
194025 405651 443
542732 981627 525
373025 946368 525
201200 762989 509
481924 591989 470
243504 801586 509
307226 737793 509
738876 977126 525
69212 488099 449
14726 925823 525
365178 952084 525
122346 942935 525
42246 891584 525
127462 801025 509
377901 967509 525
55341 632147 509
3589 618462 470
117685 645121 509
44229 923852 525
99771 395060 443
413972 679292 509
388629 876830 525
247942 884486 525
141174 693896 509
26753 179571 383
762454 974056 525
73943 996986 525
269569 555370 470
126697 659274 509
30508 634549 509
18206 412822 449
65071 580259 470
9271 263060 443
192479 267480 443
330245 669191 509
174139 733187 509
423797 953673 525
215444 860453 525
82495 684417 509
121589 798266 509
473305 837260 509
3995 949979 525
531189 897190 525
431516 944149 525
139870 196933 383
263134 748412 509
47415 468811 449
359675 529485 470
439275 886842 525
68825 774169 509
153814 345065 443
592458 898177 525
112295 878004 525
35964 977696 525
179711 970549 525
101009 904308 525
293097 757839 509
51728 844145 525
238396 978498 525
102780 964814 525
135754 682308 509
37626 413971 449
122285 510929 449
621408 946792 525
140472 517639 470
705147 764599 424
17462 458878 449
140253 175347 383
27546 380778 443
121125 227877 386
132517 959200 525
209839 685270 509
791787 904380 525
299694 999234 525
91207 586731 470
119504 781982 509
647281 929974 525
44544 534596 470
380457 837660 509
626451 825438 504
83393 821876 509
483055 769104 509
100256 960496 525
7909 917564 525
308658 548752 470
108105 756511 509
259749 739238 509
466770 968131 525
416094 865315 525
115175 425104 449
680088 891219 525
116551 984227 525
103951 300995 443
35663 462518 449
1060 777764 509
32297 520722 470
541232 861009 525
676502 777014 504
112287 567811 470
40850 982109 525
393310 771461 509
105998 729692 509
248815 740776 509
58348 726196 509
114270 368463 443
289957 836405 509
72340 558141 470
