1 10 20
100 200 125
201 210 89
900 1000 174
804905 909848 525
968193 994144 458
800113 912637 525
712574 747683 424
735278 830521 468
609257 920772 525
732099 821067 468
743467 999604 525
514355 945079 525
350178 728666 509
514836 738892 509
409271 461101 449
76353 994597 525
757149 872221 525
817028 941896 525
61847 246639 443
661960 668415 442
653205 918024 525
599387 778634 509
520827 754989 509
488171 515377 470
977325 998866 440
406899 828378 509
545753 608277 452
247863 782068 509
558341 907762 525
801503 905594 525
560899 638079 509
346504 798457 509
697120 857292 525
397670 987366 525
948238 996470 458
555640 916855 525
37965 841225 525
285854 974565 525
297813 532809 470
282165 745381 509
595632 661864 509
770318 830282 468
369352 387803 423
129977 996685 525
988830 992724 352
315470 382352 441
868380 888156 445
430851 835166 509
468849 615046 470
587889 855161 525
656603 898223 525
815104 906677 525
792800 854890 525
71073 327939 443
131929 434641 449
200727 860218 525
539064 856252 525
541969 636913 509
474836 819737 509
789622 841419 525
441478 459695 387
980772 983521 427
837024 929709 525
768669 912524 525
987370 999175 440
913973 966667 507
580542 943614 525
140837 974058 525
591885 719709 509
986190 990408 396
710417 866456 525
309458 549484 470
491817 880149 525
849421 959518 507
509546 860478 525
555566 638109 509
721525 940230 525
264872 859454 525
963830 990776 458
395644 492837 449
109444 297077 443
742413 982252 525
153236 275707 443
952037 989393 458
233574 297109 407
209555 709851 509
160699 219290 386
91534 161338 383
818320 898060 525
70959 381995 443
107080 816148 509
517093 536057 439
21555 449897 449
129117 363622 443
591635 989690 525
430271 480861 444
407989 893697 525
468231 764901 509
126556 193685 383
265665 353796 441
771232 957642 525
246351 562911 470
22266 220559 386
321022 892140 525
548516 976321 525
741821 783317 468
938960 960230 507
849017 911259 476
920270 973729 507
36594 550519 470
816945 943404 525
718385 959692 525
430149 796848 509
618436 857012 525
437692 676852 509
389095 479689 449
330350 927025 525
741926 898352 525
295925 769840 509
475864 978357 525
8537 762453 509
382192 543223 470
972375 976387 383
838685 840572 388
546293 885235 525
530673 912659 525
676714 758252 504
582197 645788 509
442105 620410 470
575842 956002 525
664654 966406 525
426219 563656 470
342355 704504 509
527689 603862 452
131100 527187 470
596181 632085 509
569556 879572 525
551344 712685 509
456389 744411 509
43931 612403 470
952282 960837 414
735694 851507 525
601498 926633 525
799109 993873 525
737532 961915 525
227245 279278 443
863296 867424 388
853159 917499 476
512002 632495 509
286760 324233 389
931560 953466 507
974735 997398 427
389094 700158 509
